[gd_scene load_steps=2 format=2]

[sub_resource type="Curve2D" id=1]
_data = {
"points": PoolVector2Array( 31.4645, -16.856, -31.4645, 16.856, 64, -24, -29.5916, -14.6085, 29.5916, 14.6085, 64, 56, 0, 0, 0, 0, 256, 8, -32.5882, -16.4814, 32.5882, 16.4814, 416, -24, 31.4645, -15.3576, -31.4645, 15.3576, 416, 56, 0, 0, 0, 0, 224, 8, 32.9628, -16.1068, -32.9628, 16.1068, 64, -24 )
}

[node name="Path2D" type="Path2D"]
position = Vector2( 0, 56 )
curve = SubResource( 1 )
__meta__ = {
"_edit_vertical_guides_": [  ]
}
