[gd_scene load_steps=2 format=2]

[sub_resource type="Curve2D" id=1]
resource_local_to_scene = true
_data = {
"points": PoolVector2Array( 145.568, 0.793228, -145.568, -0.793228, 240, 64, -145.445, -0.417021, 145.445, 0.417021, 240, -16, 143.48, -0.382016, -143.48, 0.382016, 240, 64 )
}

[node name="Path2D" type="Path2D"]
position = Vector2( 0, 56 )
curve = SubResource( 1 )
__meta__ = {
"_edit_vertical_guides_": [  ]
}
