[gd_scene load_steps=2 format=2]

[sub_resource type="Curve2D" id=1]
_data = {
"points": PoolVector2Array( 0, 0, 0, 0, 144, 0, 0, 0, 0, 0, 336, 48, 0, 0, 0, 0, 144, 96, 0, 0, 0, 0, 336, 144, 0, 0, 0, 0, 144, 192, 0, 0, 0, 0, 336, 240, 0, 0, 0, 0, 144, 288 )
}

[node name="Path2D" type="Path2D"]
curve = SubResource( 1 )
__meta__ = {
"_edit_vertical_guides_": [  ]
}
